{
  "profiles": {
	"Jammy": {
	  "commandName": "Project",
	  "nativeDebugging": true
	}
  },
  "Logging": {
	"LogLevel": {
	  "Default": "Trace",
	  "Microsoft": "Warning",
	  "Microsoft.Hosting.Lifetime": "Information"
	}
  }
}